…
``` r
cv_df %>% 
  mutate(
    linear_mod = map(.x = train, ~lm(y ~ x, data = .x)),
    smooth_mod = map(.x = train, ~gam(y ~ s(x), data = .x)),
    wiggly_mod = map(.x = train, ~gam(y ~ s(x, k = 30), sp = 10e-6, data = .x))
  ) %>% 
  mutate(
    rmse_linear = map2_dbl(.x = linear_mod, .y = test, ~rmse(model = .x, data = .y)),
    rmse_smooth = map2_dbl(.x = smooth_mod, .y = test, ~rmse(model = .x, data = .y)),
    rmse_wiggly = map2_dbl(.x = wiggly_mod, .y = test, ~rmse(model = .x, data = .y))
  )
```

    ## # A tibble: 100 × 9
    ##    train   test   .id   linear_mod smooth_mod wiggly_mod rmse_linear rmse_smooth
    ##    <list>  <list> <chr> <list>     <list>     <list>           <dbl>       <dbl>
    ##  1 <tibbl… <tibb… 001   <lm>       <gam>      <gam>            0.675       0.298
    ##  2 <tibbl… <tibb… 002   <lm>       <gam>      <gam>            0.655       0.336
    ##  3 <tibbl… <tibb… 003   <lm>       <gam>      <gam>            0.785       0.295
    ##  4 <tibbl… <tibb… 004   <lm>       <gam>      <gam>            0.874       0.263
    ##  5 <tibbl… <tibb… 005   <lm>       <gam>      <gam>            0.784       0.250
    ##  6 <tibbl… <tibb… 006   <lm>       <gam>      <gam>            0.844       0.324
    ##  7 <tibbl… <tibb… 007   <lm>       <gam>      <gam>            0.791       0.274
    ##  8 <tibbl… <tibb… 008   <lm>       <gam>      <gam>            0.758       0.310
    ##  9 <tibbl… <tibb… 009   <lm>       <gam>      <gam>            0.621       0.287
    ## 10 <tibbl… <tibb… 010   <lm>       <gam>      <gam>            0.839       0.338
    ## # … with 90 more rows, and 1 more variable: rmse_wiggly <dbl>
…
